<svg width="171" height="163" viewBox="0 0 171 163" fill="none" xmlns="http://www.w3.org/2000/svg">
<path d="M44.166 137.166H38.3676L39.6854 135.577L44.9567 121.534L43.9024 119.944H49.7009L54.9722 135.709L56.4218 137.299H49.042L50.4916 135.709L49.7009 133.06H43.6389L42.7164 135.709L44.166 137.166ZM44.6931 130.278H49.1738L47.197 123.389L44.6931 130.278ZM164.088 126.568C160.926 125.641 160.003 125.376 160.003 123.919C160.003 122.196 162.112 121.931 163.561 121.931C164.747 121.931 165.802 122.064 166.724 122.329L169.36 125.111L169.096 120.209C167.515 119.547 165.802 119.282 163.825 119.282C159.74 119.282 155.786 120.739 155.786 124.846C155.786 127.495 157.631 129.085 161.585 130.145C164.616 130.94 166.065 131.602 166.065 133.06C166.065 134.914 163.825 135.179 162.244 135.179C160.926 135.179 159.871 135.047 158.817 134.649L156.182 131.337L156.313 136.504C158.158 137.299 160.267 137.564 162.375 137.564C166.724 137.564 170.414 135.709 170.414 132C170.414 128.688 168.042 127.628 164.088 126.568ZM146.43 119.944L148.143 121.534V130.675L141.158 119.944H134.833L136.15 121.534V135.577L134.833 137.166H140.631L138.918 135.577V124.051L147.616 137.166H150.91V121.534L152.228 119.944H146.43ZM147.616 147.235L148.406 148.56H147.879L147.088 147.235H146.561V148.56H146.166V145.645H147.352C148.011 145.645 148.406 145.91 148.406 146.44C148.406 146.97 148.011 147.235 147.616 147.235ZM147.22 146.97C147.616 146.97 148.011 146.97 148.011 146.44C148.011 146.043 147.616 146.043 147.352 146.043H146.693V146.97H147.22ZM149.856 147.102C149.856 148.56 148.67 149.752 147.22 149.752C145.771 149.752 144.585 148.692 144.585 147.102C144.585 145.645 145.771 144.453 147.22 144.453C148.67 144.453 149.856 145.645 149.856 147.102ZM149.329 147.102C149.329 145.91 148.406 144.983 147.22 144.983C146.034 144.983 145.112 145.91 145.112 147.102C145.112 148.295 146.034 149.222 147.22 149.222C148.406 149.355 149.329 148.427 149.329 147.102ZM116.515 144.983L117.964 146.572V156.376C117.964 159.158 116.515 159.953 114.275 159.953C112.034 159.953 110.585 159.29 110.585 156.376V146.572L112.034 144.983H104.918L106.236 146.572V156.376C106.236 161.145 108.608 162.867 113.747 162.867C118.36 162.867 120.732 161.278 120.732 156.508V146.44L121.918 144.85L116.515 144.983ZM122.181 137.829C116.778 137.829 113.352 133.325 113.352 128.29C113.352 123.124 117.306 119.282 122.313 119.282C127.848 119.282 131.406 123.654 131.406 128.555C131.406 134.252 127.189 137.829 122.181 137.829ZM126.794 129.748C126.794 126.701 125.74 121.931 121.918 121.931C118.887 121.931 117.964 124.978 117.964 127.098C117.964 130.145 119.15 135.047 122.84 135.047C125.476 135.047 126.794 132.53 126.794 129.748ZM85.6776 135.577V121.534L84.3598 119.944H92.5303C97.5381 119.944 99.7784 122.196 99.7784 125.641C99.7784 129.218 97.1428 131.47 93.4528 131.47C92.2668 131.47 91.0807 131.337 90.1583 131.205V135.709L92.0032 137.299H84.4916L85.6776 135.577ZM90.1583 128.82C90.6854 128.953 91.3443 129.085 92.0032 129.085C94.3753 129.085 95.4296 127.76 95.4296 125.773C95.4296 123.521 94.1117 122.329 91.6079 122.329H90.1583V128.82ZM94.6389 154.124L96.3521 155.714V159.026C95.8249 159.688 94.9024 160.218 93.5846 160.218C90.5536 160.218 88.9722 156.508 88.9722 153.329C88.9722 149.884 90.6854 147.102 94.2435 147.102C95.166 147.102 96.2203 147.235 97.1427 147.5L99.9102 150.414L99.7784 145.645C98.197 144.85 96.3521 144.453 94.3753 144.453C88.5769 144.453 84.4916 148.03 84.4916 153.991C84.4916 158.893 87.6544 163 92.5303 163C94.6389 163 96.6156 162.47 98.4606 161.145L100.569 163V155.846L101.887 154.256L94.6389 154.124ZM109.794 137.166L108.608 135.577V121.534L109.794 119.944H102.809L104.127 121.534V135.577L102.809 137.166H109.794ZM10.8249 134.914C7.26678 134.914 5.02647 131.337 5.02647 128.158C5.02647 124.316 7.135 121.799 10.0342 121.799C10.8249 121.799 11.6156 121.931 12.2745 122.064L14.9102 125.376L14.7784 119.944C13.9877 119.679 12.4063 119.282 10.2978 119.282C3.9722 119.282 0.414062 123.654 0.414062 128.555C0.414062 133.457 3.84042 137.829 9.90243 137.829C11.4838 137.829 13.8559 137.299 15.5691 136.107L15.8327 133.192C14.2513 134.252 12.2745 134.914 10.8249 134.914ZM81.4606 160.615L82.9102 162.205H75.5303L76.98 160.615L76.1893 157.966H70.1272L69.2048 160.615L70.5226 162.205H64.7241L66.042 160.615L71.3133 146.572L70.259 144.983H76.0575L81.4606 160.615ZM75.3986 155.316L73.4218 148.427L71.0497 155.316H75.3986ZM137.732 159.688H130.879V154.389H134.964L136.678 155.846V150.547L134.964 152.004H130.879V147.5H137.468L139.313 149.487L139.05 144.983H125.081L126.399 146.572V160.615L125.081 162.205H139.709L140.104 157.038L137.732 159.688ZM29.4063 137.166H36.3908L35.073 135.577V121.534L36.3908 119.944H29.4063L30.5924 121.534V126.833H24.3986V121.534L25.5846 119.944H18.6001L19.9179 121.534V135.577L18.6001 137.166H25.5846L24.3986 135.577V129.483H30.5924V135.577L29.4063 137.166ZM42.5846 159.688H36.6544V146.572L38.2358 144.983H30.9877L32.3055 146.572V160.615L30.9877 162.205V162.338H44.6931L45.352 156.906L42.5846 159.688ZM62.8792 124.846L67.7551 137.166H70.3908L74.8714 124.713L75.6621 135.577L73.949 137.166H81.197L79.7474 135.577L78.8249 121.534L79.8792 119.944H73.8172L69.7319 131.47L65.2513 119.944H59.0575L60.2435 121.534L59.4528 135.577L58.0032 137.166H64.0652L62.6156 135.577L62.8792 124.846ZM60.2435 159.688H53.3908V154.389H57.4761L59.1893 155.846V150.547L57.4761 152.004H53.3908V147.5H59.9799L61.8249 149.487L61.5614 144.983H47.5924L48.9102 146.572V160.615L47.5924 162.205H62.2203L62.6156 157.038L60.2435 159.688ZM103.732 109.611L104.127 108.021L102.15 106.564L103.732 105.504L104.654 106.166L105.709 102.722L99.7784 106.564L97.4063 105.239L106.631 99.2773C107.026 99.0124 107.422 98.8799 108.081 99.2773L108.476 99.5423C109.135 100.072 109.003 100.602 108.871 101L105.84 111.598L103.732 109.611ZM114.143 101.132L115.461 99.4098C114.802 98.7474 114.011 98.085 113.352 97.4226C105.709 90.7987 95.6931 87.0892 85.4141 87.0892C75.135 87.0892 65.1195 90.7987 57.4761 97.4226C56.6854 98.085 56.0265 98.7474 55.3675 99.4098L56.6854 101.132C57.3443 100.47 58.135 99.8073 58.7939 99.1449C66.042 92.7859 75.5303 89.3414 85.2823 89.3414C95.166 89.3414 104.523 92.7859 111.771 99.1449C112.693 99.8073 113.484 100.47 114.143 101.132ZM93.98 95.4354L97.8017 96.4953L98.4606 94.1106L94.5071 93.0508C92.2668 92.5209 90.8172 93.3158 90.29 95.303L88.7086 101.662C88.5769 101.927 88.7086 102.192 88.8404 102.457C88.9722 102.722 89.2358 102.854 89.4993 102.987L90.9489 103.384L92.0032 99.2773L96.4838 100.47L97.1427 98.085L92.6621 96.8927L92.7939 96.2303C92.9257 95.303 93.1893 95.1705 93.98 95.4354ZM81.4606 91.8585L75.0032 93.1833C74.7396 93.1833 74.4761 93.4482 74.3443 93.5807C74.2125 93.8457 74.2125 94.1107 74.2125 94.3756L75.5303 100.735C75.7939 101.794 76.1893 102.589 76.8482 102.987C77.3753 103.252 77.9024 103.384 78.5614 103.384C78.8249 103.384 79.2203 103.384 79.6156 103.252L83.7009 102.457L83.1738 100.072L79.2203 100.867C78.4296 101 78.166 101 78.0342 100.072L77.9024 99.4098L82.5148 98.4825L81.9877 96.0978L77.3753 97.0252L76.98 95.303L81.9877 94.2431L81.4606 91.8585ZM67.7551 106.299C67.228 106.696 66.7009 106.961 66.1738 106.829C65.5148 106.696 65.1195 106.431 64.4606 105.636L60.7707 101L58.7939 102.589L62.8792 107.624C63.8017 108.683 64.7241 109.213 65.9102 109.346C66.042 109.346 66.1738 109.346 66.3055 109.346C67.3598 109.346 68.4141 108.948 69.4683 108.153C70.6544 107.226 71.1815 106.166 71.3133 104.841C71.4451 103.649 71.0497 102.589 70.259 101.529L66.1738 96.4953L64.197 98.085L67.8869 102.722C68.5458 103.517 68.6776 103.914 68.6776 104.577C68.5459 105.371 68.2823 105.901 67.7551 106.299ZM85.4141 105.239C77.9024 105.239 71.0497 108.683 66.8327 113.718L68.1505 115.307C71.9722 110.538 78.4296 107.226 85.4141 107.226C92.3986 107.226 98.8559 110.538 102.678 115.307L103.995 113.718C99.7784 108.683 92.9257 105.239 85.4141 105.239ZM120.337 46.5506C120.205 46.5506 120.073 46.5505 120.073 46.4181C119.809 41.7813 119.414 37.1445 119.151 35.4223C119.151 31.3154 118.492 27.2086 117.833 24.0291C117.833 23.8966 117.964 23.7641 117.964 23.8966C121.786 24.6915 122.972 26.1487 122.972 26.1487C120.995 21.6444 118.096 18.2 114.933 15.5504C112.166 9.85376 109.135 7.20417 109.135 7.20417C109.399 8.52897 109.267 9.85376 108.74 11.311C108.74 11.4435 108.608 11.4435 108.476 11.4435C103.337 8.9264 97.9334 7.73409 95.8249 7.46913C92.7939 6.01186 89.3675 4.95202 86.6001 4.15715C86.4683 4.15715 86.4683 4.02467 86.6001 4.02467C90.29 0.977642 93.5846 0.182766 93.5846 0.182766C87.6544 -0.0821924 82.5148 0.977643 78.2978 2.69987C71.9722 2.16996 67.8869 3.36227 67.8869 3.36227C67.8869 3.36227 69.6001 5.48194 70.3908 6.67426C70.5226 6.80674 70.3908 6.93921 70.259 7.07169C66.3055 9.85376 63.4063 12.9008 62.2203 14.2256C60.9024 14.3581 58.7939 14.7555 56.8172 15.1529C56.6854 15.1529 56.6854 15.1529 56.6854 15.0205C58.6621 10.3837 60.6389 7.86657 60.6389 7.86657C60.6389 7.86657 48.3831 16.7427 46.011 32.5077C46.011 32.5077 47.0652 29.7257 50.4916 25.4863H50.6234C51.5458 27.606 52.7319 29.5932 53.259 30.5205C51.4141 33.5676 50.0962 36.8796 49.3055 39.6616C49.3055 39.7941 49.1738 39.7941 49.1738 39.9266C46.2745 40.9864 45.6156 42.0462 45.6156 42.0462C46.011 43.636 46.9334 45.0933 47.9877 46.4181C48.1195 46.5505 48.1195 46.683 48.1195 46.8155C47.8559 53.572 49.9645 58.0763 49.9645 58.0763C50.4916 55.6916 51.4141 53.4395 52.6001 51.3198C52.6001 51.1873 52.7319 51.1873 52.8637 51.3198C55.6311 53.572 58.6621 55.5592 59.7164 56.2215C60.3753 57.8113 62.0885 61.7857 64.3288 65.8925C64.3288 66.025 64.3288 66.025 64.197 66.1575C61.4296 67.2173 58.6621 67.6148 56.0265 66.9524C56.0265 66.9524 59.1893 70.7943 68.6776 72.5165C71.3133 75.696 74.6079 78.3456 78.2978 79.1405C78.2978 79.1405 77.2435 77.9482 76.98 73.3114C76.98 73.1789 77.1117 73.1789 77.1117 73.1789C79.4838 73.1789 82.6466 73.3114 85.6776 73.0464C86.7319 73.8413 88.9722 75.696 91.2125 76.8883C91.3443 76.8883 91.3443 77.1533 91.2125 77.1533C87.259 79.5379 84.7551 79.6704 84.7551 79.6704C102.414 80.0678 112.957 68.5421 112.957 68.5421C110.057 70.5293 106.763 71.7216 103.337 72.384C103.205 72.384 103.073 72.2515 103.205 72.2515C103.864 69.2045 103.6 66.29 103.6 65.2301C107.817 64.1703 111.375 62.3156 114.143 60.3284H114.275C115.461 61.1233 116.383 62.0506 117.306 63.5079C117.306 63.5079 119.151 60.8583 119.809 54.8968C124.29 48.9352 124.949 42.8411 124.949 42.8411C124.026 44.2984 122.313 45.6232 120.337 46.5506ZM82.383 8.92641C82.5148 8.66145 82.7784 8.52897 83.042 8.52897C88.7086 7.73409 93.98 7.60161 95.9567 7.73409C99.6466 10.1187 103.205 13.4307 105.972 16.4777C106.236 16.7427 106.236 17.0076 106.104 17.2726C104.127 20.4521 101.096 23.4991 99.7784 24.8239C95.0342 26.0162 89.8947 27.606 85.8094 28.9308C85.4141 29.0633 85.0187 28.9308 84.7551 28.5334C81.5924 23.8966 79.6156 20.0547 78.8249 18.5974C79.6156 14.7555 80.8017 11.311 82.383 8.92641ZM54.4451 37.9394C53.9179 34.8924 53.6544 31.8453 53.6544 30.3881C53.5226 27.0761 54.0497 24.1615 54.7086 21.3795C54.8404 20.982 55.104 20.5846 55.3675 20.1872C57.0807 18.5974 60.3753 15.6829 62.352 14.3581C64.197 13.1657 69.6001 11.4435 71.7086 10.7811C72.104 10.6486 72.6311 10.7811 72.7629 11.1786C73.0265 11.7085 73.29 12.1059 73.5536 12.5033C75.2668 15.1529 77.1117 17.5376 77.9024 18.4649C76.8482 22.7043 76.4528 27.4735 76.1893 31.4479C76.1893 31.8453 75.9257 32.1103 75.5303 32.2428C69.9955 34.3624 65.7784 36.0847 64.4606 36.7471C60.6389 36.8796 57.0807 37.542 54.5769 37.9394C54.7086 38.3368 54.5769 38.2043 54.4451 37.9394ZM69.9955 62.978C69.7319 63.243 69.2048 63.1105 68.9412 62.978C66.1738 60.9908 62.7474 58.4737 59.9799 55.8241C58.3986 53.042 57.0807 49.3326 56.1583 46.2856C56.1583 46.0206 56.1583 45.8882 56.29 45.7557C59.4528 41.9138 63.1427 38.8667 64.7241 37.6744C68.2823 39.2642 72.3675 40.589 75.7939 41.7813C76.1893 41.9138 76.4528 42.1787 76.4528 42.5762C76.9799 48.9352 78.166 54.1019 78.4296 56.0891C77.2435 57.4139 73.8172 60.5934 69.9955 62.978ZM108.871 56.7515C106.236 61.2558 104.127 64.0378 103.468 64.8327C102.546 66.1575 100.306 69.337 96.7474 72.649C96.4838 72.9139 96.2203 73.0464 95.9567 73.0464C91.6079 73.1789 87.5226 72.9139 85.9412 72.5165C84.6234 71.9866 81.4606 70.5293 77.7707 68.4097C77.5071 68.2772 77.2435 67.8797 77.2435 67.4823C77.3753 64.5677 78.2978 60.4609 79.2203 56.0891C81.197 52.5121 83.3055 48.5377 85.4141 45.2258C85.6776 44.8283 86.073 44.6958 86.4683 44.8283C92.9257 46.5506 98.4606 47.8753 100.701 48.4053C103.864 51.9822 106.763 54.6318 108.871 56.0891C108.871 56.354 109.003 56.619 108.871 56.7515ZM113.484 48.0078C113.352 48.1403 113.22 48.2728 112.957 48.4053C108.081 48.9352 102.941 48.2728 100.964 48.0078C97.6699 44.6958 93.98 40.9864 91.3443 37.6744C91.0807 37.277 91.0807 36.8796 91.3443 36.4821C95.166 31.1829 98.5924 26.9436 100.042 25.2214C104.259 24.294 108.476 23.4991 111.244 23.3667C111.507 23.3667 111.639 23.4991 111.771 23.6316C115.461 28.6658 117.964 33.5676 118.887 35.4223C117.306 39.9266 115.197 44.5634 113.484 48.0078Z" fill="white"/>
</svg>
